"OrderID";"POStatus";"UpdatedBy";"UpdatedDate";"CreatedBy";"CreatedDate";"WarehouseCity";"SupplierAddress1";"SupplierAddress2";"WarehouseAddress1";"WarehouseAddress2";"WarehouseCountry";"SupplierId";"SupplierCity";"SupplierCountry";"BrokerId";"StatusDescription";"Povalue";"Description";"Currency";"ExpectedDeliveryDate"
4501078765;"With Supplier";"Supplieruserid";"2016-11-28 04:00:00";"rep3@lego.com";"2016-11-25 00:00:00";"Mexico";"Addr1";"Add2";"Addr1";"Addr2";"billund";121778;"HongKong";"HongKong";"cus3";"Order Received by Supplier";1600.0;"With Supplier";"USD";"2016-12-26 08:17:00"
4501079222;"Delivered";"Warehouseuserid";"2016-12-12 09:00:00";"rep2@lego.com";"2016-11-22 00:00:00";"Budapest";"Addr1";"Add2";"Addr1";"Addr2";"billund";121749;"Geneva";"Switzerland";"";"Order is Delivered";2400.0;"Delivered";"EUR";"2016-12-26 08:17:00"
4501079333;"In Warehouse";"Supplieruserid";"2016-12-23 00:00:00";"rep3@lego.com";"2016-11-22 00:00:00";"Mexico";"Addr1";"Add2";"Addr1";"Addr2";"Mexico";121778;"HongKong";"HongKong";"cus3";"Order Received at WareHouse";2000.0;"";"USD";"2016-12-26 08:17:00"
4501079465;"Delivered";"Warehouseuserid";"2016-12-26 08:17:00";"rep2@lego.com";"2016-11-23 00:00:00";"Budapest";"Addr1";"Add2";"Addr1";"Addr2";"Hungary";121749;"Geneva";"Switzerland";"";"Order is Delivered";2400.0;"";"EUR";"2016-12-26 08:17:00"
4501079476;"With Broker";"Supplieruserid";"2016-12-02 07:00:00";"rep3@lego.com";"2016-11-25 00:00:00";"Mexico";"Addr1";"Add2";"Addr1";"Addr2";"Mexico";121778;"HongKong";"HongKong";"cus3";"Order Received by Broker";1200.0;"";"USD";"2016-12-26 08:17:00"
4501079555;"New";"rep3@lego.com";"2016-11-25 00:00:00";"rep3@lego.com";"2016-11-25 00:00:00";"Mexico";"Addr1";"Add2";"Addr1";"Addr2";"Mexico";121778;"HongKong";"HongKong";"cus3";"Order is Created";800.0;"";"EUR";"2016-12-26 08:17:00"
4501079665;"New";"rep2@lego.com";"2016-11-23 00:00:00";"rep2@lego.com";"2016-11-23 00:00:00";"Budapest";"Addr1";"Add2";"Addr1";"Addr2";"Hungary";121749;"Geneva";"Switzerland";"";"Order is Created";2000.0;"";"TWD";"2016-12-26 08:17:00"
4501079666;"New";"rep2@lego.com";"2016-11-23 00:00:00";"rep2@lego.com";"2016-11-23 00:00:00";"Budapest";"Addr1";"Add2";"Addr1";"Addr2";"Hungary";121749;"Geneva";"Switzerland";"";"Order is Created";1000.0;"";"USD";"2016-12-26 08:17:00"
4501079888;"New";"rep2@lego.com";"2016-11-23 00:00:00";"rep2@lego.com";"2016-11-23 00:00:00";"Budapest";"Addr1";"Add2";"Addr1";"Addr2";"Hungary";121749;"Geneva";"Switzerland";"";"Order is Created";600.0;"";"USD";"2016-12-26 08:17:00"
4501079983;"Shipped";"Supplieruserid";"2016-12-16 12:30:00";"rep3@lego.com";"2016-11-25 00:00:00";"Mexico";"Addr1";"Add2";"Addr1";"Addr2";"billund";121778;"HongKong";"HongKong";"cus3";"Order is Shipped";1200.0;"Shipped";"TWD";"2016-12-26 08:17:00"
4501079985;"Delayed";"rep2@lego.com";"2016-11-23 00:00:00";"rep2@lego.com";"2016-11-23 00:00:00";"Budapest";"Addr1";"Add2";"Addr1";"Addr2";"Hungary";121749;"Geneva";"Switzerland";"";"Order is Delayed";2400.0;"";"USD";"2016-12-26 08:17:00"
4501081111;"With Supplier";"Supplieruserid";"2016-12-16 08:17:00";"rep1@lego.com";"2016-11-22 00:00:00";"Billund";"Addr1";"Add2";"Addr1";"Addr2";"Denmark";18548;"Suzhou";"China";"";"Shippment Received by Supplier";4000.0;"sethere";"USD";"2016-12-26 08:17:00"
4501081456;"With Supplier";"Supplieruserid";"2016-12-14 07:00:00";"rep1@lego.com";"2016-11-22 00:00:00";"Billund";"Addr1";"Add2";"Addr1";"Addr2";"Denmark";18548;"Suzhou";"China";"";"Order Received by Supplier";3000.0;"";"TWD";"2016-12-26 08:17:00"
4501081775;"With Supplier";"Supplieruserid";"2016-12-10 01:30:00";"rep1@lego.com";"2016-11-28 01:30:00";"Billund";"Addr1";"Add2";"Addr1";"Addr2";"Denmark";18548;"Suzhou";"China";"";"Order Received by Supplier";2800.0;"";"USD";"2016-12-26 08:17:00"
4501081777;"With Supplier";"Supplieruserid";"2016-12-15 01:30:00";"rep1@lego.com";"2016-12-01 01:30:00";"Billund";"Addr1";"Add2";"Addr1";"Addr2";"Denmark";18548;"Suzhou";"China";"";"Order Received by Supplier";2000.0;"";"USD";"2016-12-26 08:17:00"
4501081977;"New";"rep1@lego.com";"2016-11-28 00:00:00";"rep1@lego.com";"2016-11-28 00:00:00";"Billund";"Addr1";"Add2";"Addr1";"Addr2";"Denmark";18548;"Suzhou";"China";"";"Order is Created";440.0;"";"USD";"2016-12-26 08:17:00"
4501081987;"With Supplier";"Supplieruserid";"2016-11-27 08:00:00";"rep1@lego.com";"2016-11-23 08:00:00";"Billund";"Addr1";"Add2";"Addr1";"Addr2";"Denmark";18548;"Suzhou";"China";"";"Order Received by Supplier";3000.0;"";"USD";"2016-12-26 08:17:00"
4501081988;"New";"rep1@lego.com";"2016-11-28 01:30:00";"rep1@lego.com";"2016-11-28 01:30:00";"Billund";"Addr1";"Add2";"Addr1";"Addr2";"Denmark";18548;"Suzhou";"China";"";"Order is Created";1200.0;"";"USD";"2016-12-26 08:17:00"
4501082001;"Completed";"Warehouseuserid";"2016-12-02 09:00:00";"rep1@lego.com";"2016-11-25 09:00:00";"Billund";"Addr1";"Add2";"Addr1";"Addr2";"Denmark";18548;"Suzhou";"China";"";"Order is Delivered";10400.0;"";"USD";"2016-12-26 08:17:00"
4501082345;"With Supplier";"Supplieruserid";"2016-11-22 00:00:00";"rep1@lego.com";"2016-11-22 00:00:00";"Billund";"Addr1";"Add2";"Addr1";"Addr2";"Denmark";18548;"Suzhou";"China";"";"Order Received by Supplier";3200.0;"";"USD";"2016-12-26 08:17:00"
4501082346;"With Supplier";"Supplieruserid";"2016-11-23 05:30:00";"rep1@lego.com";"2016-11-22 05:30:00";"Billund";"Addr1";"Add2";"Addr1";"Addr2";"Denmark";123458;"Suzhou";"China";"";"Order is with Supplier";45676.0;"";"USD";"2016-12-26 08:17:00"
4501082347;"With Supplier";"Supplieruserid";"2016-11-23 05:30:00";"rep1@lego.com";"2016-11-22 05:30:00";"Billund";"Addr1";"Add2";"Addr1";"Addr2";"Denmark";18548;"Suzhou";"China";"";"Order is with Supplier";4000.0;"";"USD";"2016-12-26 08:17:00"
4501082348;"With Supplier";"Supplieruserid";"2016-11-23 05:30:00";"rep1@lego.com";"2016-11-22 05:30:00";"Billund";"Addr1";"Add2";"Addr1";"Addr2";"Denmark";18548;"Suzhou";"China";"";"Order is created";4000.0;"";"USD";"2016-12-26 08:17:00"
4501082349;"With Supplier";"Supplieruserid";"2016-11-23 05:30:00";"rep1@lego.com";"2016-11-22 05:30:00";"Billund";"Addr1";"Add2";"Addr1";"Addr2";"Denmark";18548;"Suzhou";"China";"";"";4000.0;"";"USD";"2016-12-26 08:17:00"
4501082350;"New";"rep1@lego.com";"2016-11-23 05:30:00";"rep1@lego.com";"2016-11-22 05:30:00";"Billund";"Addr1";"Add2";"Addr1";"Addr2";"Denmark";18548;"Suzhou";"China";"";"";4000.0;"";"USD";"2016-12-26 08:17:00"
4501082351;"With Supplier";"rep3@lego.com";"2016-11-23 05:30:00";"rep1@lego.com";"2016-11-22 05:30:00";"Billund";"Addr1";"Add2";"Addr1";"Addr2";"Denmark";99999;"Suzhou";"China";"";"";4000.0;"";"USD";"2016-12-26 08:17:00"
4501082352;"With Supplier";"rep3@lego.com";"2016-11-23 05:30:00";"rep1@lego.com";"2016-11-22 05:30:00";"Billund";"Addr1";"Add2";"Addr1";"Addr2";"Denmark";99999;"Suzhou";"China";"";"";4000.0;"";"USD";"2016-12-26 08:17:00"
4501082353;"With Supplier";"rep3@lego.com";"2016-11-23 05:30:00";"rep1@lego.com";"2016-11-22 05:30:00";"Billund";"Addr1";"Add2";"Addr1";"Addr2";"Denmark";99999;"Suzhou";"China";"";"Order Received by Supplier";4000.0;"";"USD";"2016-12-26 08:17:00"
4501082354;"With Supplier";"rep3@lego.com";"2016-11-23 05:30:00";"rep1@lego.com";"2016-11-22 05:30:00";"Billund";"Addr1";"Add2";"Addr1";"Addr2";"Denmark";99999;"Suzhou";"China";"";"Order is Created";4000.0;"";"USD";"2016-12-26 08:17:00"
4501082355;"With Supplier";"rep3@lego.com";"2016-11-23 05:30:00";"rep1@lego.com";"2016-11-22 05:30:00";"Billund";"Addr1";"Add2";"Addr1";"Addr2";"Denmark";99999;"Suzhou";"China";"";"Order is Created";4000.0;"";"USD";"2016-12-26 08:17:00"
