"Id";"OrderID";"LineID";"Status";"CreatedBy";"CreatedDate";"AttrName";"AttrValue";"Description"
1;4501078765;54;"Created";"rep1@lego.com";"2016-11-25 05:30:00";"";"";"Order is Created"
2;4501078765;54;"Shipped";"Supplieruserid";"2016-11-28 04:00:00";"";"";"Order is Shipped"
3;4501078765;54;"Received";"Customerbrokeruserid";"2016-11-26 09:00:00";"";"";"Order Received by Broker"
4;4501078765;54;"Received";"Warehouseuserid";"2016-11-28 00:06:00";"";"";"Order Received at WareHouse"
5;4501078765;54;"Received";"Supplieruserid";"2016-11-27 08:00:00";"";"";"Order Received by Supplier"
6;4501079222;75;"Created";"rep1@lego.com";"2016-11-22 03:20:00";"";"";"Order is Created"
7;4501079222;75;"Received";"Supplieruserid";"2016-11-28 09:00:00";"";"";"Order Received by Supplier"
8;4501079222;75;"Received";"Customerbrokeruserid";"2016-11-25 09:00:00";"";"";"Order Received by Broker"
9;4501079222;75;"Shipped";"Supplieruserid";"2016-12-06 09:00:00";"";"";"Order is Shipped"
10;4501079222;75;"Delivered";"Warehouseuserid";"2016-12-12 09:00:00";"";"";"Order is Delivered"
11;4501079333;77;"Created";"rep1@lego.com";"2016-11-22 03:20:00";"";"";"Order is Created"
12;4501079333;77;"Received";"Supplieruserid";"2016-12-01 03:20:00";"";"";"Order Received by Supplier"
13;4501079333;77;"Received";"Customerbrokeruserid";"2016-11-28 04:30:00";"";"";"Order Received by Broker"
14;4501079333;77;"Shipped";"Supplieruserid";"2016-12-23 00:00:00";"";"";"Order is Shipped"
15;4501079333;77;"Received";"Warehouseuserid";"2016-12-12 08:30:00";"";"";"Order Received at WareHouse"
16;4501079465;39;"Created";"rep1@lego.com";"2016-11-23 07:00:00";"";"";"Order is Created"
17;4501079465;39;"Received";"Supplieruserid";"2016-11-30 12:30:00";"";"";"Order Received by Supplier"
18;4501079465;39;"Received";"Customerbrokeruserid";"2016-11-25 08:17:00";"";"";"Order Received by Broker"
19;4501079465;39;"Shipped";"Supplieruserid";"2016-12-12 08:17:00";"";"";"Order is Shipped"
20;4501079465;39;"Delivered";"Warehouseuserid";"2016-12-26 08:17:00";"";"";"Order is Delivered"
21;4501079476;40;"Received";"Customerbrokeruserid";"2016-11-29 03:20:00";"";"";"Order Received by Broker"
22;4501079476;40;"Created";"rep1@lego.com";"2016-11-22 07:00:00";"";"";"Order is Created"
23;4501079476;40;"Received";"Supplieruserid";"2016-12-02 07:00:00";"";"";"Order Received by Supplier"
25;4501079555;18;"Created";"rep1@lego.com";"2016-11-25 05:30:00";"";"";"Order is Created"
26;4501079665;19;"Created";"rep1@lego.com";"2016-11-23 01:30:00";"";"";"Order is Created"
27;4501079666;32;"Created";"rep1@lego.com";"2016-11-23 01:30:00";"";"";"Order is Created"
28;4501079888;12;"Created";"rep1@lego.com";"2016-11-28 01:30:00";"";"";"Order is Created"
29;4501079983;66;"Created";"rep1@lego.com";"2016-11-25 08:00:00";"";"";"Order is Created"
30;4501079983;66;"Received";"Supplieruserid";"2016-11-29 08:00:00";"";"";"Order Received by Supplier"
31;4501079983;66;"Received";"Customerbrokeruserid";"2016-11-28 12:30:00";"";"";"Order Received by Broker"
32;4501079983;66;"Received";"Warehouseuserid";"2016-12-05 00:30:00";"";"";"Order Received at WareHouse"
33;4501079983;66;"Shipped";"Supplieruserid";"2016-12-16 12:30:00";"";"";"Order is Shipped"
34;4501079985;65;"Created";"rep1@lego.com";"2016-11-23 08:00:00";"";"";"Order is Created"
35;4501079985;65;"Received";"Supplieruserid";"2016-11-24 12:30:00";"";"";"Order Received by Supplier"
36;4501079985;65;"Shipped";"Supplieruserid";"2016-12-14 12:30:00";"";"";"Order is Shipped"
37;4501079985;65;"Received";"Warehouseuserid";"2016-12-01 12:30:00";"";"";"Order Received at WareHouse"
38;4501079985;65;"Delayed";"Supplieruserid";"2016-11-27 12:30:00";"";"";"Order is Delayed"
39;4501081111;71;"Created";"rep1@lego.com";"2016-12-02 03:20:00";"";"";"Order is Created"
40;4501081111;73;"Created";"rep1@lego.com";"2016-11-22 03:20:00";"";"";"Order is Created"
41;4501081111;71;"Received";"Customerbrokeruserid";"2016-12-03 03:20:00";"";"";"Order Received by Broker"
42;4501081111;71;"Shipped";"Supplieruserid";"2016-12-16 08:17:00";"";"";"Order is Shipped"
43;4501081111;73;"Received";"Customerbrokeruserid";"2016-11-28 08:17:00";"";"";"Order Received by Broker"
44;4501081111;73;"Shipped";"Supplieruserid";"2016-12-10 08:17:00";"";"";"Order is Shipped"
45;4501081111;71;"Received";"Warehouseuserid";"2016-12-06 03:20:00";"";"";"Order Received at WareHouse"
46;4501081111;73;"Received";"Warehouseuserid";"2016-12-05 08:17:00";"";"";"Order Received at WareHouse"
47;4501081111;71;"Received";"Supplieruserid";"2016-12-04 03:20:00";"";"";"Order Received by Supplier"
48;4501081111;73;"Received";"Supplieruserid";"2016-11-30 03:20:00";"";"";"Order Received by Supplier"
49;4501081456;35;"Created";"rep1@lego.com";"2016-11-22 07:00:00";"";"";"Order is Created"
50;4501081456;37;"Created";"rep1@lego.com";"2016-12-01 07:00:00";"";"";"Order is Created"
51;4501081456;35;"Received";"Customerbrokeruserid";"2016-11-23 07:00:00";"";"";"Order Received by Broker"
52;4501081456;35;"Shipped";"Supplieruserid";"2016-12-14 07:00:00";"";"";"Order is Shipped"
53;4501081456;35;"Received";"Warehouseuserid";"2016-11-25 07:00:00";"";"";"Order Received at WareHouse"
54;4501081456;37;"Received";"Customerbrokeruserid";"2016-12-04 07:00:00";"";"";"Order Received by Broker"
55;4501081456;37;"Shipped";"Supplieruserid";"2016-12-15 07:00:00";"";"";"Order is Shipped"
56;4501081456;37;"Received";"Warehouseuserid";"2016-12-10 07:00:00";"";"";"Order Received at WareHouse"
57;4501081456;35;"Received";"Supplieruserid";"2016-11-24 07:00:00";"";"";"Order Received by Supplier"
58;4501081456;37;"Received";"Supplieruserid";"2016-12-06 07:00:00";"";"";"Order Received by Supplier"
59;4501081775;16;"Created";"rep1@lego.com";"2016-11-28 01:30:00";"";"";"Order is Created"
60;4501081775;16;"Received";"Customerbrokeruserid";"2016-11-29 01:30:00";"";"";"Order Received by Broker"
61;4501081775;16;"Shipped";"Supplieruserid";"2016-12-10 01:30:00";"";"";"Order is Shipped"
62;4501081775;16;"Received";"Warehouseuserid";"2016-12-08 01:30:00";"";"";"Order Received at WareHouse"
63;4501081775;16;"Received";"Supplieruserid";"2016-12-01 01:30:00";"";"";"Order Received by Supplier"
64;4501081775;17;"Created";"rep1@lego.com";"2016-11-22 01:30:00";"";"";"Order is Created"
65;4501081775;17;"Received";"Customerbrokeruserid";"2016-11-23 01:30:00";"";"";"Order Received by Broker"
66;4501081775;17;"Shipped";"Supplieruserid";"2016-11-26 01:30:00";"";"";"Order is Shipped"
67;4501081775;17;"Received";"Warehouseuserid";"2016-11-25 01:30:00";"";"";"Order Received at WareHouse"
68;4501081775;17;"Received";"Supplieruserid";"2016-11-24 01:30:00";"";"";"Order Received by Supplier"
71;4501081777;15;"Created";"rep1@lego.com";"2016-12-01 01:30:00";"";"";"Order is Created"
72;4501081777;25;"Created";"rep1@lego.com";"2016-11-28 01:30:00";"";"";"Order is Created"
73;4501081777;15;"Received";"Customerbrokeruserid";"2016-12-02 01:30:00";"";"";"Order Received by Broker"
74;4501081777;15;"Shipped";"Supplieruserid";"2016-12-15 01:30:00";"";"";"Order is Shipped"
75;4501081777;15;"Received";"Warehouseuserid";"2016-12-10 01:30:00";"";"";"Order Received at WareHouse"
76;4501081777;25;"Received";"Customerbrokeruserid";"2016-11-29 01:30:00";"";"";"Order Received by Broker"
77;4501081777;25;"Shipped";"Supplieruserid";"2016-12-02 01:30:00";"";"";"Order is Shipped"
78;4501081777;25;"Received";"Warehouseuserid";"2016-12-01 01:30:00";"";"";"Order Received at WareHouse"
79;4501081777;15;"Received";"Supplieruserid";"2016-12-06 01:30:00";"";"";"Order Received by Supplier"
80;4501081777;25;"Received";"Supplieruserid";"2016-11-30 01:30:00";"";"";"Order Received by Supplier"
81;4501081987;62;"Created";"rep1@lego.com";"2016-11-23 08:00:00";"";"";"Order is Created"
82;4501081987;61;"Received";"Customerbrokeruserid";"2016-11-29 01:30:00";"";"";"Order Received by Broker"
83;4501081987;61;"Shipped";"Supplieruserid";"2016-12-02 01:30:00";"";"";"Order is Shipped"
84;4501081987;61;"Received";"Warehouseuserid";"2016-12-01 01:30:00";"";"";"Order Received at WareHouse"
85;4501081987;62;"Received";"Customerbrokeruserid";"2016-11-24 08:00:00";"";"";"Order Received by Broker"
86;4501081987;62;"Shipped";"Supplieruserid";"2016-11-27 08:00:00";"";"";"Order is Shipped"
87;4501081987;62;"Received";"Warehouseuserid";"2016-11-26 08:00:00";"";"";"Order Received at WareHouse"
88;4501081987;61;"Received";"Supplieruserid";"2016-11-30 01:30:00";"";"";"Order Received by Supplier"
89;4501081987;62;"Received";"Supplieruserid";"2016-11-25 08:00:00";"";"";"Order Received by Supplier"
90;4501081988;11;"Created";"rep1@lego.com";"2016-11-28 01:30:00";"";"";"Order is Created"
92;4501082001;91;"Created";"rep1@lego.com";"2016-11-25 09:00:00";"";"";"Order is Created"
93;4501082001;93;"Created";"rep1@lego.com";"2016-11-25 09:00:00";"";"";"Order is Created"
94;4501082001;94;"Created";"rep1@lego.com";"2016-11-25 09:00:00";"";"";"Order is Created"
95;4501082001;91;"Delayed";"Supplieruserid";"2016-11-27 09:00:00";"";"";"Order is Delayed"
96;4501082001;91;"Received";"Supplieruserid";"2016-11-27 09:00:00";"";"";"Order Received by Supplier"
97;4501082001;91;"Shipped";"Supplieruserid";"2016-11-27 09:00:00";"";"";"Order is Shipped"
98;4501082001;93;"Delayed";"Supplieruserid";"2016-11-28 09:00:00";"";"";"Order is Delayed"
99;4501082001;93;"Received";"Supplieruserid";"2016-11-27 09:00:00";"";"";"Order Received by Supplier"
100;4501082001;93;"Shipped";"Supplieruserid";"2016-11-30 09:00:00";"";"";"Order is Shipped"
101;4501082001;94;"Delayed";"Supplieruserid";"2016-11-27 09:00:00";"";"";"Order is Delayed"
102;4501082001;94;"Received";"Supplieruserid";"2016-11-27 09:00:00";"";"";"Order Received by Supplier"
103;4501082001;94;"Shipped";"Supplieruserid";"2016-11-27 09:00:00";"";"";"Order is Shipped"
104;4501082001;91;"Received";"Warehouseuserid";"2016-11-28 09:00:00";"";"";"Order Received at WareHouse"
105;4501082001;93;"Received";"Warehouseuserid";"2016-11-29 09:00:00";"";"";"Order Received at WareHouse"
106;4501082001;91;"Received";"Customerbrokeruserid";"2016-11-29 09:00:00";"";"";"Order Received by Broker"
107;4501082001;93;"Received";"Customerbrokeruserid";"2016-11-26 09:00:00";"";"";"Order Received by Broker"
108;4501082001;94;"Received";"Customerbrokeruserid";"2016-11-29 09:00:00";"";"";"Order Received by Broker"
109;4501082001;94;"Received";"Warehouseuserid";"2016-11-29 09:00:00";"";"";"Order Received at WareHouse"
110;4501082001;94;"Completed";"Warehouseuserid";"2016-11-30 09:00:00";"";"";"Order is Delivered"
111;4501082001;93;"Completed";"Warehouseuserid";"2016-12-11 09:00:00";"";"";"Order is Delivered"
112;4501082001;91;"Completed";"Warehouseuserid";"2016-12-02 09:00:00";"";"";"Order is Delivered"
113;4501082345;51;"Created";"rep1@lego.com";"2016-11-22 05:30:00";"";"";"Order is Created"
114;4501082345;52;"Created";"rep1@lego.com";"2016-11-22 05:30:00";"";"";"Order is Created"
115;4501082345;51;"Received";"Customerbrokeruserid";"2016-11-25 07:30:00";"";"";"Order Received by Broker"
116;4501082345;51;"Shipped";"Supplieruserid";"2016-11-25 07:30:00";"";"";"Order is Shipped"
117;4501082345;52;"Shipped";"Supplieruserid";"2016-11-30 05:30:00";"";"";"Order is Shipped"
118;4501082345;51;"Received";"Warehouseuserid";"2016-11-27 07:30:00";"";"";"Order Received at WareHouse"
119;4501082345;52;"Received";"Customerbrokeruserid";"2016-11-23 05:30:00";"";"";"Order Received by Broker"
120;4501082345;52;"Received";"Warehouseuserid";"2016-11-25 05:30:00";"";"";"Order Received at WareHouse"
121;4501082345;51;"Received";"Supplieruserid";"2016-11-26 07:30:00";"";"";"Order Received by Supplier"
122;4501082345;52;"Received";"Supplieruserid";"2016-11-24 05:30:00";"";"";"Order Received by Supplier"
123;4501082346;95;"Created";"rep1@lego.com";"2016-11-22 05:30:00";"";"";"Order is Created"
125;4501082347;97;"Created";"rep1@lego.com";"2016-11-22 05:30:00";"";"";"Order is Created"
126;4501082347;98;"Created";"rep1@lego.com";"2016-11-22 05:30:00";"";"";"Order is Created"
128;4501082348;100;"Created";"rep1@lego.com";"2016-11-22 05:30:00";"";"";"Order is Created"
29297;4501081111;71;"Received";"rep1@lego.com";"2016-12-05 03:20:00";"";"";"Shippment Received by Supplier"
29298;4501081111;73;"Received";"rep1@lego.com";"2016-12-02 05:30:00";"";"";"Shippment Received by Supplier"
29300;4501081987;61;"Created";"rep1@lego.com";"2016-11-28 01:30:00";"";"";"Order is Created"
29305;4501082349;124;"Created";"rep1@lego.com";"2016-11-22 05:30:00";"";"";"Order is Created"
29307;4501082350;126;"Created";"rep1@lego.com";"2016-11-22 05:30:00";"";"";"Order is Created"
29308;4501082351;128;"Created";"rep1@lego.com";"2016-11-22 05:30:00";"";"";"Order is Created"
29309;4501082351;129;"Created";"rep1@lego.com";"2016-11-22 05:30:00";"";"";"Order is Created"
29310;4501082352;130;"Created";"rep1@lego.com";"2016-11-22 05:30:00";"";"";"Order is Created"
29311;4501082352;131;"Created";"rep1@lego.com";"2016-11-22 05:30:00";"";"";"Order is Created"
29312;4501082353;132;"Created";"rep1@lego.com";"2016-11-22 05:30:00";"";"";"Order is Created"
29313;4501082353;133;"Created";"rep1@lego.com";"2016-11-22 05:30:00";"";"";"Order is Created"
29314;4501082354;134;"Created";"rep1@lego.com";"2016-12-20 13:28:53";"";"";"Order is Created"
29315;4501082354;135;"Created";"rep1@lego.com";"2016-12-20 13:28:53";"";"";"Order is Created"
29316;4501082355;136;"Created";"rep1@lego.com";"2016-12-20 13:41:24";"";"";"Order is Created"
29317;4501082355;137;"Created";"rep1@lego.com";"2016-12-20 13:41:24";"";"";"Order is Created"
