"Id";"TrackingID";"OrderID";"LineID";"ShippingAgency";"LastStatus";"UpdatedAt";"UpdatedDate";"UpdatedBy"
78731;78723;4501081111;71;"DHL";"ShippmentRecevied";"";"2016-11-22";""
78732;78724;4501081111;73;"FEDEX";"ShippmentRecevied";"";"2016-11-22";""
78733;78727;4501081111;73;"FEDEX";"ShippmentRecevied";"";"2016-11-22";""
78734;78728;4501081111;71;"DHL";"ShippmentRecevied";"";"2016-11-22";""
78735;78729;4501081111;73;"FEDEX";"ShippmentRecevied";"";"2016-11-22";""
78736;78730;4501081111;71;"DHL";"ShippmentRecevied";"";"2016-11-22";""
78737;0;4501081111;73;"FEDEX";"ShippmentRecevied";"";"2016-11-22";""
78738;0;4501081111;71;"DHL";"ShippmentRecevied";"";"2016-11-22";""
