"ID";"UserID";"Salt";"Hash";"RoleID";"LastLoginTime";"CreatedTime";"CreatedBy";"UpdatedTime";"UpdatedBy";"RoleValue"
1;"sivap";"hz4bWIjfaveTwdEUppbHhonRYSPMYN3x";"sCcq7vf+gqe/BWC9fwQ+T8zl";1;"2016-11-28 00:00:00";"2016-11-28 00:00:00";"System";"2016-11-28 00:00:00";"System";"rep3@lego.com"
2;"premk";"U8kp66nGL6CuLwcHK3ofe5yK6eepBTGs";"EYHsEAkusa1Q3QmWFHD3WF98";1;"2016-11-28 00:00:00";"2016-11-28 00:00:00";"System";"2016-11-28 00:00:00";"system";"rep3@lego.com"
3;"navanee";"FCtEEzH+FwFWIkFLdqA2glJEzIlK/R4b";"jFotOl8vpdP/4vkcwcsGfVDZ";2;"2016-11-28 00:00:00";"2016-11-28 00:00:00";"System";"2016-11-28 00:00:00";"System";"18548"
4;"vamsi";"0OcpdN8R/iNGz9XgPy5ugEyeAIBUz/Wm";"MbQhR7/T76nLCX82MOzv6pAl";3;"2016-11-28 00:00:00";"2016-11-28 00:00:00";"System";"2016-11-28 00:00:00";"System";"cus1"
5;"karuna";"z2chksoDf/I31ydwN1VzeGcDssJc00m1";"OrfHGfJaf3UoXuPQ6H/EkBBJ";4;"2016-11-28 00:00:00";"2016-11-28 00:00:00";"System";"2016-11-28 00:00:00";"System";"billund"
6;"admin";"3MS4UzGb5whfld7Oqpm/FyV0pQobz0Xv";"ohZ28QZzRDpNmmPYbcAtZhu2";5;"2016-11-28 00:00:00";"2016-11-28 00:00:00";"System";"2016-11-28 00:00:00";"System";"admin"
7;"navanee1";"aITmCHJBBWGJvkyJ1ZlJk8HJpKAawZHi";"aUcglOncpb4gM1gGRvrLXrkh";2;"2016-11-28 00:00:00";"2016-11-28 00:00:00";"System";"2016-11-28 00:00:00";"System";"18548"
8;"vamsi1";"xWC0UZNzQ+ge7B2ap9AZ9Grh85KhNKHe";"JW5SOM+sb1i4RfYqabIdCyNq";3;"2016-11-28 00:00:00";"2016-11-28 00:00:00";"System";"2016-11-28 00:00:00";"System";"cus1"
9;"karuna1";"3pBcWkaGD/+Ys8v7XtHoZKHr0JtnskD3";"WJDid2Oyo1sqBY1dyjNKVjkE";4;"2016-11-28 00:00:00";"2016-11-28 00:00:00";"System";"2016-11-28 00:00:00";"System";"billund"
10;"premk1";"Yxj+4lbZ8O0A41qZ4UE36JcpEDA1+kym";"vJd9dIwQ6q0m3n+fJLJlVQpk";1;"2016-11-28 00:00:00";"2016-11-28 00:00:00";"System";"2016-11-28 00:00:00";"System";"rep3@lego.com"
11;"navanee2";"iQc6wiPQ1IMQwAj31cy8G9wrVhHoNL0k";"iGWIgL31KonfZliX8d6nyKc4";2;"2016-11-28 00:00:00";"2016-11-28 00:00:00";"System";"2016-11-28 00:00:00";"System";"18548"
12;"vamsi2";"MIJHnXubLflwNqr6KBLWak5Yq/CPXycv";"NhPZh3p1nnZuRl6AYE/frjSE";3;"2016-11-28 00:00:00";"2016-11-28 00:00:00";"System";"2016-11-28 00:00:00";"System";"cus1"
13;"karuna2";"rtT9XlNARH/5B15cDMmfj7M/lq7+2FYR";"30GuuO85XJluvsRViZ70d87i";4;"2016-11-28 00:00:00";"2016-11-28 00:00:00";"System";"2016-11-28 00:00:00";"System";"billund"
14;"radhan";"OzTeK9nIOjxfNPA1mE7eiOLnvzoCqmnR";"dRej1bnm9NfjnmxMqG5zoLBn";4;"2016-11-28 00:00:00";"2016-11-28 00:00:00";"System";"2016-11-28 00:00:00";"System";"billund"
31;"suresh";"IhxyRgUj2s8imYQh0TxEhIEGAv3s6ZH+";"yGizJmoMIlaTcCzx64iVAItI";4;"2016-12-23 15:56:48";"2016-12-23 15:56:48";"System";"2016-12-23 15:56:48";"System";"billund"
